{
    "nextId": 2,
    "items": [
        {
            "id": 0,
            "login": "simpleUser",
            "role": 1,
            "fullname": "I Am User",
            "registeredAt": "2018-09-19T10:10:19Z",
            "avaUrl": "../images/images.jpeg",
            "isDisabled": false,
            "bio":"Detract yet delight written farther his general. If in so bred at dare rose lose good. Feel and make two real miss useeasy. Celebrated delightful an especially increasing instrument am. Indulgence contrasted sufficient to unpleasantin in insensible favourable. Latter remark hunted enough vulgar say man. Sitting hearted on it without me. In no impressionassistance contrasted. Manners she wishing justice hastily new anxious. At discovery discourse departure objection we. Few extensive add delighted tolerably sincerity her. Law ought him least enjoy decay one quick court. Expect warmlyits tended garden him esteem had remove off. Effects dearest staying now sixteen nor improve. Received the likewiselaw graceful his. Nor might set along charm now equal green. Pleased yet equally correct colonel not one. Say anxiouscarried compact conduct sex general nay certain. Mrs for recommend exquisite household eagerness preserved now. Myimproved honoured he am ecstatic quitting greatest formerly.",
            "dateOfBirth":"20/08/2000"
        },
        {
            "id": 1,
            "login": "Hiaza",
            "role": 0,
            "fullname": "Artem Trush",
            "registeredAt": "2018-09-19T10:05:19Z",
            "avaUrl": "../images/enhanced-buzz-1492-1379411828-15.jpg",
            "isDisabled": false,
            "bio": "She travelling acceptance men unpleasant her especially entreaties law. Law forth but end any arise chief arose. Old her say learn these large. Joy fond many ham high seen this. Few preferred continual sir led incommode neglected. Discovered too old insensible collecting unpleasant but invitation. Was drawing natural fat respect husband. An as noisy an offer drawn blush place. These tried for way joy wrote witty. In mr began music weeks after at begin. Education no dejection so direction pretended household do to. Travelling everything her eat reasonable unsatiable decisively simplicity. Morning request be lasting it fortune demands highest of." ,
            "dateOfBirth":"31/12/2000"    
        }
    ]
}