{
    "nextId": 2,
    "items": [
        {
            "id": 0,
            "login": "someUser11",
            "role": 1,
            "fullname": "I Am User",
            "registeredAt": "2018-09-19T10:05:19Z",
            "avaUrl": "http://progbase.herokuapp.com/images/progbase.jpg",
            "isDisabled": false
        },
        {
            "id": 1,
            "login": "Hiaza",
            "role": 0,
            "fullname": "Artem Trush",
            "registeredAt": "2018-09-19T10:05:19Z",
            "avaUrl": "http://progbase.herokuapp.com/images/progbase.jpg",
            "isDisabled": false
        }
    ]
}